0.600000 0.028341 -0.000000
0.600000 0.056691 4.474185
0.600000 0.084999 9.143811
0.600000 0.113328 9.435035
0.600000 0.141645 10.496286
0.600000 0.169975 12.997942
0.600000 0.198297 16.621540
0.600000 0.226622 19.621428
0.600000 0.254942 20.307305
0.600000 0.283259 19.565329
0.600000 0.311584 19.484120
0.600000 0.339901 20.656119
0.600000 0.368215 21.643456
0.600000 0.396537 21.681286
0.600000 0.424856 21.480630
0.600000 0.453174 20.876323
0.600000 0.481492 20.241136
0.600000 0.509810 19.943097
0.600000 0.538128 19.863643
0.600000 0.566445 19.258192
0.600000 0.594758 17.938795
0.600000 0.623066 16.501053
0.600000 0.651375 15.498861
0.600000 0.679689 15.397889
0.600000 0.708007 14.302918
0.600000 0.736320 12.733730
0.600000 0.764608 11.736524
0.600000 0.792918 10.475445
