0.700000 0.028310 -0.000000
0.700000 0.056648 2.451436
0.700000 0.084962 5.779087
0.700000 0.113268 8.444714
0.700000 0.141581 10.997716
0.700000 0.169901 11.342809
0.700000 0.198222 11.837715
0.700000 0.226582 15.291017
0.700000 0.254904 17.068351
0.700000 0.283224 17.210141
0.700000 0.311538 18.444123
0.700000 0.339856 19.418056
0.700000 0.368173 19.844192
0.700000 0.396491 19.655404
0.700000 0.424809 20.598600
0.700000 0.453127 21.651461
0.700000 0.481445 22.525367
0.700000 0.509762 23.727529
0.700000 0.538081 23.667646
0.700000 0.566403 23.764812
0.700000 0.594731 23.771040
0.700000 0.623045 23.744629
0.700000 0.651363 24.116202
0.700000 0.679676 23.838473
0.700000 0.707986 24.388303
0.700000 0.736293 24.132480
0.700000 0.764615 23.858992
0.700000 0.792932 24.212535
0.700000 0.821243 24.614642
0.700000 0.849552 25.611579
0.700000 0.877873 25.388638
0.700000 0.906189 25.256235
0.700000 0.934506 25.307671
0.700000 0.962827 24.620175
0.700000 0.991144 24.878413
0.700000 1.019460 25.009687
0.700000 1.047777 25.178534
0.700000 1.076099 25.801564
0.700000 1.104411 25.515757
0.700000 1.132724 25.440314
0.700000 1.161037 25.261085
0.700000 1.189355 24.951034
0.700000 1.217669 25.467038
0.700000 1.245989 25.207880
0.700000 1.274310 25.165108
0.700000 1.302622 25.555940
0.700000 1.330950 25.175408
0.700000 1.359270 25.579174
0.700000 1.387589 25.384442
0.700000 1.415899 24.941897
0.700000 1.444216 25.508965
0.700000 1.472534 25.207501
0.700000 1.500862 25.152872
0.700000 1.529181 25.082833
0.700000 1.557502 24.996588
0.700000 1.585822 25.741118
0.700000 1.614137 25.247157
0.700000 1.642456 24.989267
0.700000 1.670780 25.213838
0.700000 1.699099 24.707334
0.700000 1.727418 25.206116
0.700000 1.755736 25.166903
0.700000 1.784053 24.641370
0.700000 1.812371 25.187516
0.700000 1.840697 25.233180
0.700000 1.869016 25.272584
0.700000 1.897335 25.067074
0.700000 1.925660 24.677136
0.700000 1.953969 25.168294
0.700000 1.982277 24.758419
0.700000 2.010591 24.785959
0.700000 2.038910 25.109059
0.700000 2.067235 24.399117
0.700000 2.095562 24.971460
0.700000 2.123886 24.991828
0.700000 2.152199 24.660378
0.700000 2.180524 24.769194
0.700000 2.208840 24.350760
0.700000 2.237154 24.852051
0.700000 2.265473 24.542949
0.700000 2.293788 24.403460
0.700000 2.322104 24.941011
0.700000 2.350426 24.371903
0.700000 2.378751 24.725408
0.700000 2.407076 24.595112
0.700000 2.435393 24.241191
0.700000 2.463730 24.434594
0.700000 2.492040 24.020358
0.700000 2.520357 24.595036
0.700000 2.548683 24.449295
0.700000 2.577008 24.356310
0.700000 2.605320 24.610519
0.700000 2.633638 24.047576
0.700000 2.661952 24.652588
0.700000 2.690266 24.525173
0.700000 2.718585 24.413689
0.700000 2.746910 24.786412
0.700000 2.775233 24.357626
0.700000 2.803557 24.814808
0.700000 2.831876 24.498735
0.700000 2.860186 24.514981
0.700000 2.888501 25.023246
0.700000 2.916821 24.551880
0.700000 2.945136 25.137919
0.700000 2.973460 24.927745
0.700000 3.001777 24.807690
0.700000 3.030103 25.333016
0.700000 3.058420 24.896000
0.700000 3.086736 25.307675
0.700000 3.115051 25.119782
0.700000 3.143370 24.820525
0.700000 3.171692 25.532552
0.700000 3.200008 25.176261
0.700000 3.228332 25.354021
0.700000 3.256652 25.709885
0.700000 3.284975 25.213823
0.700000 3.313296 25.590659
0.700000 3.341616 25.353788
0.700000 3.369936 25.205261
0.700000 3.398256 25.820886
0.700000 3.426576 25.513128
0.700000 3.454894 25.672907
0.700000 3.483215 25.781722
0.700000 3.511530 25.316309
0.700000 3.539849 25.813630
0.700000 3.554084 25.092963
