-0.900000 0.028312 -0.000000
-0.900000 0.056640 -5.490379
-0.900000 0.084950 -12.156511
-0.900000 0.113263 -15.377842
-0.900000 0.141579 -18.117897
-0.900000 0.169900 -22.028203
-0.900000 0.198224 -26.662596
-0.900000 0.226532 -29.688797
-0.900000 0.254857 -33.084164
-0.900000 0.283173 -36.426947
-0.900000 0.311480 -39.130686
-0.900000 0.339798 -40.937006
-0.900000 0.368112 -42.014637
-0.900000 0.396430 -43.712986
-0.900000 0.424749 -46.430652
-0.900000 0.453066 -49.023502
-0.900000 0.481385 -50.910492
-0.900000 0.509702 -52.112499
-0.900000 0.538020 -52.927782
-0.900000 0.566338 -53.780808
-0.900000 0.594661 -54.947852
-0.900000 0.622980 -56.009602
-0.900000 0.651308 -57.384729
-0.900000 0.679627 -58.983942
-0.900000 0.707954 -59.431716
-0.900000 0.736275 -59.568488
-0.900000 0.764603 -60.242619
-0.900000 0.792912 -60.891064
-0.900000 0.821230 -61.785715
-0.900000 0.849533 -62.229387
-0.900000 0.877843 -62.496622
-0.900000 0.906181 -62.765909
-0.900000 0.934495 -62.821005
-0.900000 0.962821 -63.003235
-0.900000 0.991139 -63.028520
-0.900000 1.019452 -62.834232
-0.900000 1.042812 -63.087734
