0.750000 0.028352 0.000000
0.750000 0.056700 0.634966
0.750000 0.085009 1.558924
0.750000 0.113316 2.473930
0.750000 0.141628 4.291742
0.750000 0.169939 7.361215
0.750000 0.198309 10.399063
0.750000 0.226631 10.337692
0.750000 0.254938 8.671457
0.750000 0.283231 11.558869
0.750000 0.311549 16.533139
0.750000 0.339866 15.990531
0.750000 0.368185 15.712143
0.750000 0.396508 17.795937
0.750000 0.424827 19.335324
0.750000 0.453144 19.992816
0.750000 0.481463 19.545814
0.750000 0.509780 19.903373
0.750000 0.538099 21.015787
0.750000 0.566421 22.265255
0.750000 0.594749 23.353749
0.750000 0.623066 22.730010
0.750000 0.651370 22.611230
0.750000 0.679690 22.818620
0.750000 0.708001 22.855330
0.750000 0.736319 23.610972
0.750000 0.764646 24.100628
0.750000 0.792964 25.282412
0.750000 0.821282 24.581253
0.750000 0.849591 24.307161
0.750000 0.877906 24.556778
0.750000 0.906222 24.394805
0.750000 0.934538 25.526606
0.750000 0.962859 25.325810
0.750000 0.991172 24.810706
0.750000 1.019487 25.190709
0.750000 1.047805 25.238127
0.750000 1.076125 25.831781
0.750000 1.104443 25.523894
