-1.000000 0.028310 0.000000
-1.000000 0.056639 -6.195031
-1.000000 0.084956 -11.051875
-1.000000 0.113264 -11.424128
-1.000000 0.141583 -15.694281
-1.000000 0.169895 -18.425178
-1.000000 0.198220 -20.389363
-1.000000 0.226534 -22.921625
-1.000000 0.254857 -25.424759
-1.000000 0.283179 -28.162274
-1.000000 0.311490 -29.091887
-1.000000 0.339806 -29.482322
-1.000000 0.368124 -30.809646
-1.000000 0.396443 -32.635394
-1.000000 0.424762 -34.343083
-1.000000 0.453072 -35.878386
-1.000000 0.481386 -36.765398
-1.000000 0.509693 -37.701361
-1.000000 0.538023 -38.783161
-1.000000 0.566343 -39.538940
-1.000000 0.594662 -40.301128
-1.000000 0.622982 -41.413590
-1.000000 0.651307 -42.988088
-1.000000 0.679615 -44.199164
-1.000000 0.707919 -44.473726
-1.000000 0.736223 -44.874396
-1.000000 0.764535 -45.762106
-1.000000 0.792851 -46.864987
-1.000000 0.821157 -47.694722
-1.000000 0.849481 -48.114675
-1.000000 0.877801 -48.937039
-1.000000 0.906110 -49.725048
-1.000000 0.934429 -50.480669
-1.000000 0.962740 -50.886076
-1.000000 0.991053 -51.209521
-1.000000 1.019366 -52.230969
-1.000000 1.047680 -52.607346
-1.000000 1.075996 -52.852761
-1.000000 1.104315 -53.513773
-1.000000 1.132633 -53.919180
-1.000000 1.160942 -54.703359
-1.000000 1.189249 -55.608082
-1.000000 1.217567 -56.264688
-1.000000 1.245885 -56.819949
-1.000000 1.274206 -57.542043
-1.000000 1.302531 -57.803160
-1.000000 1.330855 -58.068093
-1.000000 1.359176 -58.419555
-1.000000 1.386371 -58.722820
