-0.500000 0.028350 -0.000000
-0.500000 0.056701 -2.737990
-0.500000 0.085027 -5.488329
-0.500000 0.113341 -5.551525
-0.500000 0.141662 -6.684120
-0.500000 0.169971 -9.347160
-0.500000 0.198294 -11.491802
-0.500000 0.226609 -11.987295
-0.500000 0.254927 -12.504817
-0.500000 0.283241 -13.220265
-0.500000 0.311534 -12.977486
-0.500000 0.339851 -13.076078
-0.500000 0.368170 -13.894664
-0.500000 0.396493 -13.754161
-0.500000 0.424812 -13.525736
-0.500000 0.453130 -13.606420
-0.500000 0.481449 -12.901229
