-0.400000 0.028345 -0.000000
-0.400000 0.056701 -0.000000
-0.400000 0.085016 0.000000
-0.400000 0.113331 0.000000
-0.400000 0.141647 0.000000
-0.400000 0.169953 0.000000
-0.400000 0.198279 0.000000
-0.400000 0.226591 0.000000
-0.400000 0.254910 0.000000
-0.400000 0.283226 0.000000
-0.400000 0.311549 0.000000
-0.400000 0.339864 0.000000
-0.400000 0.368181 0.000000
-0.400000 0.396501 0.000000
-0.400000 0.424818 0.000000
-0.400000 0.453134 0.000000
-0.400000 0.481449 0.000000
-0.400000 0.509756 0.000000
-0.400000 0.538073 0.000000
-0.400000 0.566388 0.000000
-0.400000 0.594704 0.000000
-0.400000 0.623010 0.000000
-0.400000 0.651312 0.000000
-0.400000 0.679628 0.000000
-0.400000 0.707940 0.000000
-0.400000 0.736257 0.000000
-0.400000 0.764569 0.000000
-0.400000 0.792881 0.000000
-0.400000 0.821214 0.000000
-0.400000 0.849536 0.000000
-0.400000 0.877851 0.000000
-0.400000 0.906167 0.000000
-0.400000 0.934484 0.000000
-0.400000 0.962799 0.000000
-0.400000 0.991116 0.000000
-0.400000 1.019433 0.000000
-0.400000 1.047750 0.000000
-0.400000 1.076065 0.000000
-0.400000 1.104387 0.000000
-0.400000 1.132702 0.000000
-0.400000 1.161019 0.000000
-0.400000 1.189326 0.000000
-0.400000 1.217639 0.000000
-0.400000 1.245952 0.000000
-0.400000 1.274278 0.000000
-0.400000 1.302591 0.000000
-0.400000 1.330909 0.000000
-0.400000 1.359226 0.000000
-0.400000 1.387548 0.000000
-0.400000 1.415857 0.000000
-0.400000 1.444181 0.000000
-0.400000 1.472498 0.000000
-0.400000 1.500822 0.000000
-0.400000 1.529144 0.000000
-0.400000 1.557467 0.000000
-0.400000 1.585784 0.000000
-0.400000 1.614102 0.000000
-0.400000 1.642418 0.000000
-0.400000 1.670736 0.000000
-0.400000 1.699052 0.000000
-0.400000 1.727370 0.000000
-0.400000 1.755687 0.000000
-0.400000 1.783997 0.000000
-0.400000 1.812311 0.000000
-0.400000 1.840641 0.000000
-0.400000 1.868949 0.000000
-0.400000 1.897264 0.000000
-0.400000 1.925578 0.000000
-0.400000 1.953867 0.000000
-0.400000 1.982180 0.000000
-0.400000 2.010503 0.000000
-0.400000 2.038825 0.000000
-0.400000 2.067149 0.000000
-0.400000 2.095466 -0.009932
-0.400000 2.123790 -0.009932
-0.400000 2.152107 0.000000
-0.400000 2.180430 0.000000
-0.400000 2.208746 0.000000
-0.400000 2.237046 0.000000
-0.400000 2.265362 0.000000
-0.400000 2.293670 0.000000
-0.400000 2.321984 0.000000
-0.400000 2.350301 0.000000
-0.400000 2.378620 0.000000
-0.400000 2.406943 0.000000
-0.400000 2.435260 0.000000
-0.400000 2.463576 0.000000
-0.400000 2.491882 0.000000
-0.400000 2.520188 0.000000
-0.400000 2.548504 0.000000
-0.400000 2.576829 0.000000
-0.400000 2.605146 0.000000
-0.400000 2.633469 0.000000
-0.400000 2.661785 0.000000
-0.400000 2.690107 0.000000
-0.400000 2.718423 0.000000
-0.400000 2.746745 0.000000
-0.400000 2.775064 0.000000
-0.400000 2.803383 0.000000
-0.400000 2.831705 0.000000
-0.400000 2.860018 0.000000
-0.400000 2.888331 0.000000
-0.400000 2.916655 0.000000
-0.400000 2.944964 0.000000
-0.400000 2.973282 0.000000
-0.400000 3.001597 0.000000
-0.400000 3.029884 0.000000
-0.400000 3.058197 0.000000
-0.400000 3.086515 0.000000
-0.400000 3.114837 0.000000
-0.400000 3.143161 0.000000
-0.400000 3.171478 0.000000
-0.400000 3.199801 0.000000
-0.400000 3.228114 0.000000
-0.400000 3.256436 0.000000
-0.400000 3.284753 0.000000
-0.400000 3.313073 0.000000
-0.400000 3.341386 0.000000
-0.400000 3.369695 0.000000
-0.400000 3.398008 0.000000
-0.400000 3.426329 0.000000
-0.400000 3.454646 0.000000
-0.400000 3.482971 0.000000
-0.400000 3.511289 0.000000
-0.400000 3.539606 0.000000
-0.400000 3.567886 0.000000
-0.400000 3.596203 0.000000
-0.400000 3.624524 0.000000
-0.400000 3.652842 0.000000
-0.400000 3.681160 0.000000
-0.400000 3.709485 0.000000
-0.400000 3.737810 0.000000
-0.400000 3.766130 0.000000
-0.400000 3.794446 0.000000
-0.400000 3.822765 0.000000
-0.400000 3.851082 0.000000
-0.400000 3.879392 0.000000
-0.400000 3.907714 0.000000
-0.400000 3.936029 0.000000
-0.400000 3.964345 0.000000
-0.400000 3.992666 0.000000
-0.400000 4.020981 0.000000
-0.400000 4.049300 0.000000
-0.400000 4.076892 0.000000
