1.250000 0.028333 -0.000000
1.250000 0.056685 12.985175
1.250000 0.085005 25.270061
1.250000 0.113322 26.348878
1.250000 0.141631 33.059630
1.250000 0.169946 43.450355
1.250000 0.198262 51.431473
1.250000 0.226581 54.814830
1.250000 0.254904 56.536083
1.250000 0.283224 60.705977
1.250000 0.311542 66.938329
1.250000 0.339855 70.124877
1.250000 0.368171 69.719996
1.250000 0.396490 69.553980
1.250000 0.424815 71.141563
1.250000 0.453137 72.547852
1.250000 0.481451 71.082085
1.250000 0.509768 67.900012
1.250000 0.538085 65.780662
1.250000 0.566403 64.121201
1.250000 0.594722 61.566607
1.250000 0.623034 57.321296
1.250000 0.651345 52.988558
