-0.200000 0.028342 -0.000000
-0.200000 0.056704 -0.009916
-0.200000 0.085024 -0.019848
-0.200000 0.113337 -0.019865
-0.200000 0.141653 -0.019866
-0.200000 0.169978 -0.009933
-0.200000 0.198294 0.000000
-0.200000 0.226612 0.009932
-0.200000 0.254904 -0.000009
-0.200000 0.283219 -0.000008
-0.200000 0.311525 0.009933
-0.200000 0.339841 -0.009933
-0.200000 0.368159 -0.029796
-0.200000 0.396479 -0.009933
-0.200000 0.424786 0.009931
-0.200000 0.453099 0.000000
-0.200000 0.481416 -0.009932
-0.200000 0.509731 0.000001
-0.200000 0.538047 0.009933
-0.200000 0.566362 0.000000
-0.200000 0.594852 0.000000
-0.200000 0.623159 -0.009936
-0.200000 0.651476 -0.000004
-0.200000 0.679789 -0.000001
-0.200000 0.708098 0.000001
-0.200000 0.736426 0.009935
-0.200000 0.764729 0.000000
-0.200000 0.793044 0.000000
-0.200000 0.821364 -0.009931
-0.200000 0.849685 -0.000000
-0.200000 0.878004 0.009931
-0.200000 0.906309 0.000000
-0.200000 0.934626 0.000000
-0.200000 0.962936 0.000000
-0.200000 0.991251 0.000000
-0.200000 1.019571 0.000000
-0.200000 1.047886 0.000000
-0.200000 1.076206 -0.009931
-0.200000 1.104523 0.000001
-0.200000 1.132839 -0.000000
-0.200000 1.161156 -0.009933
-0.200000 1.189468 0.009934
-0.200000 1.217777 0.009934
-0.200000 1.246090 0.000000
-0.200000 1.274410 0.000000
-0.200000 1.302721 0.000000
-0.200000 1.331037 0.000000
-0.200000 1.359360 0.000000
-0.200000 1.387679 0.000000
-0.200000 1.415979 0.000000
-0.200000 1.444298 0.000000
-0.200000 1.472612 0.000000
-0.200000 1.500930 0.000000
-0.200000 1.529251 0.000000
-0.200000 1.557567 0.000000
-0.200000 1.585886 0.000000
-0.200000 1.614204 -0.009932
-0.200000 1.642522 0.000000
-0.200000 1.670843 0.000001
-0.200000 1.699156 -0.009931
-0.200000 1.727475 0.009931
-0.200000 1.755793 0.009931
-0.200000 1.784116 0.000000
-0.200000 1.812432 0.000000
-0.200000 1.840747 0.000000
-0.200000 1.869059 0.000000
-0.200000 1.897378 0.000000
-0.200000 1.925700 0.000000
-0.200000 1.954015 0.000000
-0.200000 1.982328 0.000000
-0.200000 2.010645 0.000000
-0.200000 2.038958 0.000000
-0.200000 2.067276 0.000000
-0.200000 2.095593 -0.009932
-0.200000 2.123912 -0.000001
-0.200000 2.152234 0.009932
-0.200000 2.180558 0.000000
-0.200000 2.208880 0.000000
-0.200000 2.237198 0.000000
-0.200000 2.265515 0.000000
-0.200000 2.293833 0.000000
-0.200000 2.322149 -0.009933
-0.200000 2.350468 -0.009933
-0.200000 2.378780 0.009934
-0.200000 2.407084 -0.000003
-0.200000 2.435393 -0.000002
-0.200000 2.463712 0.009935
-0.200000 2.492035 0.000000
-0.200000 2.520359 0.000000
-0.200000 2.548668 0.000000
-0.200000 2.576988 0.000000
-0.200000 2.605302 0.000000
-0.200000 2.633613 0.000000
-0.200000 2.661924 0.000000
-0.200000 2.690242 0.000000
-0.200000 2.718549 0.000000
-0.200000 2.746867 0.000000
-0.200000 2.775184 0.000000
-0.200000 2.803507 0.000000
-0.200000 2.831823 0.000000
-0.200000 2.860146 0.000000
-0.200000 2.888462 -0.009933
-0.200000 2.916785 -0.000003
-0.200000 2.945102 0.009930
-0.200000 2.973423 0.000000
-0.200000 3.001741 0.000000
-0.200000 3.030059 0.000000
-0.200000 3.058375 0.000000
-0.200000 3.086690 -0.009933
-0.200000 3.115006 -0.000000
-0.200000 3.143331 0.009933
-0.200000 3.171649 -0.009932
-0.200000 3.199966 0.000000
-0.200000 3.228271 -0.000004
-0.200000 3.256585 -0.000003
-0.200000 3.284906 0.009933
-0.200000 3.313226 0.000000
-0.200000 3.341547 -0.009931
-0.200000 3.369866 0.000001
-0.200000 3.398176 0.009931
-0.200000 3.426485 0.000000
-0.200000 3.454806 0.000000
-0.200000 3.483123 -0.009932
-0.200000 3.511445 -0.009932
-0.200000 3.539763 0.009932
-0.200000 3.568091 0.009932
-0.200000 3.596408 0.000000
-0.200000 3.624730 0.000000
-0.200000 3.653043 0.000000
-0.200000 3.681356 0.000000
-0.200000 3.709683 -0.009929
-0.200000 3.737996 0.000005
-0.200000 3.766309 0.009934
-0.200000 3.794631 0.000000
-0.200000 3.822955 0.000000
-0.200000 3.851278 0.000000
-0.200000 3.879602 0.000000
-0.200000 3.907924 0.000000
-0.200000 3.936243 0.000000
-0.200000 3.964538 0.000000
-0.200000 3.992849 0.000000
-0.200000 4.021167 0.000000
-0.200000 4.049473 0.000000
-0.200000 4.077780 0.000000
-0.200000 4.106094 0.000000
-0.200000 4.134428 0.000000
-0.200000 4.162746 -0.009932
-0.200000 4.191065 -0.009932
-0.200000 4.219385 0.009931
-0.200000 4.247704 -0.000000
-0.200000 4.276016 0.000002
-0.200000 4.304333 0.009934
-0.200000 4.332644 -0.009934
-0.200000 4.360961 -0.000002
-0.200000 4.389274 0.009932
-0.200000 4.417592 0.000000
-0.200000 4.445910 -0.009932
-0.200000 4.474227 0.000000
-0.200000 4.502551 0.009932
-0.200000 4.530867 0.000000
-0.200000 4.559189 0.000000
-0.200000 4.587505 0.000000
-0.200000 4.615828 0.000000
-0.200000 4.644144 0.000000
-0.200000 4.672463 0.000000
-0.200000 4.700776 0.000000
-0.200000 4.729082 -0.009936
-0.200000 4.757397 -0.000003
-0.200000 4.785716 0.000001
-0.200000 4.814032 0.000001
-0.200000 4.842347 0.009933
-0.200000 4.870660 0.000000
-0.200000 4.898984 0.000000
-0.200000 4.927307 -0.009930
-0.200000 4.955627 -0.009930
-0.200000 4.983938 0.009934
-0.200000 5.012262 0.009934
-0.200000 5.040585 -0.009930
-0.200000 5.068903 0.000002
-0.200000 5.097219 0.009932
-0.200000 5.125538 -0.009932
-0.200000 5.153854 0.000001
-0.200000 5.182173 0.009933
-0.200000 5.210485 0.000000
-0.200000 5.238799 0.000000
-0.200000 5.267117 0.000000
-0.200000 5.295435 0.000000
-0.200000 5.323758 0.000000
-0.200000 5.352076 0.000000
-0.200000 5.380393 -0.009932
-0.200000 5.408710 -0.000000
-0.200000 5.437020 0.009932
-0.200000 5.465333 0.000000
-0.200000 5.493647 0.000000
-0.200000 5.521970 0.000000
-0.200000 5.550286 -0.009933
-0.200000 5.578611 -0.009933
-0.200000 5.606927 0.000000
-0.200000 5.635247 0.009931
-0.200000 5.663565 0.009931
-0.200000 5.691879 0.000000
-0.200000 5.720196 0.000000
-0.200000 5.748516 0.000000
-0.200000 5.776839 0.000000
-0.200000 5.805157 -0.009932
-0.200000 5.833470 -0.009932
-0.200000 5.861791 0.000000
-0.200000 5.890108 0.009932
-0.200000 5.918430 0.009932
-0.200000 5.927894 0.000000
