0.400000 0.028310 0.000000
0.400000 0.056649 0.000000
0.400000 0.084967 0.000000
0.400000 0.113277 0.000000
0.400000 0.141593 0.000000
0.400000 0.169915 0.000000
0.400000 0.198227 0.000000
0.400000 0.226537 0.000000
0.400000 0.254855 0.000000
0.400000 0.283163 0.000000
0.400000 0.311476 0.000000
0.400000 0.339788 0.000000
0.400000 0.368103 0.000000
0.400000 0.396415 0.000000
0.400000 0.424729 0.000000
0.400000 0.453042 0.000000
0.400000 0.481350 0.000000
0.400000 0.509709 0.000000
0.400000 0.538029 0.000000
0.400000 0.566341 0.000000
0.400000 0.594657 0.000000
0.400000 0.622968 0.000000
0.400000 0.651279 0.000000
0.400000 0.679597 0.000000
0.400000 0.707905 0.000000
0.400000 0.736218 0.000000
0.400000 0.764532 0.000000
0.400000 0.792847 0.000000
0.400000 0.821163 0.000000
0.400000 0.849477 0.000000
0.400000 0.877788 0.000000
0.400000 0.906107 0.000000
0.400000 0.934424 0.000000
0.400000 0.962738 0.000000
0.400000 0.991055 0.000000
0.400000 1.019372 0.000000
0.400000 1.047688 0.000000
0.400000 1.076003 0.000000
0.400000 1.104319 0.000000
0.400000 1.132633 0.000000
0.400000 1.160949 0.000000
0.400000 1.189255 0.000000
0.400000 1.217568 0.000000
0.400000 1.245880 0.000000
0.400000 1.274174 0.000000
0.400000 1.302494 0.000000
0.400000 1.330808 0.000000
0.400000 1.359126 0.000000
0.400000 1.387441 0.000000
0.400000 1.415769 0.000000
0.400000 1.444089 0.000000
0.400000 1.472406 0.000000
0.400000 1.500724 0.000000
0.400000 1.529040 0.000000
0.400000 1.557358 0.000000
0.400000 1.585674 0.000000
0.400000 1.613991 0.000000
0.400000 1.642307 0.000000
0.400000 1.670629 0.000000
0.400000 1.698945 0.000000
0.400000 1.727257 0.000000
0.400000 1.755565 0.000000
0.400000 1.783883 0.000000
0.400000 1.812191 0.000000
0.400000 1.840510 0.000000
0.400000 1.868832 0.000000
0.400000 1.897150 0.000000
0.400000 1.925456 0.000000
0.400000 1.953764 0.000000
0.400000 1.982074 0.000000
0.400000 2.010392 0.000000
0.400000 2.038710 0.000000
0.400000 2.067034 0.000000
0.400000 2.095350 0.000000
0.400000 2.123669 0.000000
0.400000 2.151985 0.000000
0.400000 2.180304 0.000000
0.400000 2.208620 0.000000
0.400000 2.236932 0.000000
0.400000 2.265239 0.000000
0.400000 2.293535 0.000000
0.400000 2.321842 0.000000
0.400000 2.350155 0.000000
0.400000 2.378472 0.000000
0.400000 2.406783 0.000000
0.400000 2.435090 0.000000
0.400000 2.463406 0.000000
0.400000 2.491732 0.000000
0.400000 2.520042 0.000000
0.400000 2.548340 0.000000
0.400000 2.576658 0.000000
0.400000 2.604979 0.000000
0.400000 2.633296 0.000000
0.400000 2.661613 0.000000
0.400000 2.689931 0.000000
0.400000 2.718247 0.000000
0.400000 2.746569 0.000000
0.400000 2.774885 0.000000
0.400000 2.803198 0.000000
0.400000 2.831506 0.000000
0.400000 2.859828 0.000000
0.400000 2.888133 0.000000
0.400000 2.916453 0.000000
0.400000 2.944770 0.000000
0.400000 2.973086 0.000000
0.400000 3.001404 0.000000
0.400000 3.029728 0.000000
0.400000 3.058044 0.000000
0.400000 3.086358 0.000000
0.400000 3.114675 0.000000
0.400000 3.142993 0.000000
0.400000 3.171310 0.000000
0.400000 3.199629 0.000000
0.400000 3.227945 0.000000
0.400000 3.256252 0.000000
0.400000 3.284569 0.000000
0.400000 3.312887 0.000000
0.400000 3.341198 0.000000
0.400000 3.369513 0.000000
0.400000 3.397818 0.000000
0.400000 3.426136 0.000000
0.400000 3.454451 0.000000
0.400000 3.482769 0.000000
0.400000 3.511072 0.000000
0.400000 3.539388 0.000000
0.400000 3.567705 0.000000
0.400000 3.596018 0.000000
0.400000 3.624335 0.000000
0.400000 3.652653 0.000000
0.400000 3.680955 0.000000
0.400000 3.709275 0.000000
0.400000 3.737591 0.000000
0.400000 3.765905 0.000000
0.400000 3.794215 0.000000
0.400000 3.822526 0.000000
0.400000 3.850831 0.000000
0.400000 3.879142 0.000000
0.400000 3.907452 0.000000
0.400000 3.935744 0.000000
0.400000 3.964054 0.000000
0.400000 3.992376 0.000000
0.400000 4.020692 0.000000
0.400000 4.049011 0.000000
0.400000 4.077327 0.000000
0.400000 4.105645 0.000000
0.400000 4.133962 0.000000
0.400000 4.162291 0.000000
0.400000 4.190612 0.000000
0.400000 4.218931 0.000000
0.400000 4.247245 0.000000
0.400000 4.275562 0.000000
0.400000 4.303869 0.000000
0.400000 4.332177 0.000000
0.400000 4.360496 0.000000
0.400000 4.388804 0.000000
0.400000 4.417121 0.000000
0.400000 4.445443 0.000000
0.400000 4.473760 0.000000
0.400000 4.502078 0.000000
0.400000 4.530387 0.000000
0.400000 4.558707 0.000000
0.400000 4.587023 0.000000
0.400000 4.615341 0.000000
0.400000 4.643656 0.000000
0.400000 4.671969 0.000000
0.400000 4.700275 0.000000
0.400000 4.728596 0.000000
0.400000 4.756903 0.000000
0.400000 4.785215 0.000000
0.400000 4.813538 0.000000
0.400000 4.841853 0.000000
0.400000 4.870181 0.000000
0.400000 4.898493 0.000000
0.400000 4.926804 0.000000
0.400000 4.955122 0.000000
0.400000 4.983437 0.000000
0.400000 5.011760 0.000000
0.400000 5.040076 0.000000
0.400000 5.068399 0.000000
0.400000 5.096716 0.000000
0.400000 5.125034 0.000000
0.400000 5.153350 0.000000
0.400000 5.181668 0.000000
0.400000 5.209990 0.000000
0.400000 5.238316 0.000000
0.400000 5.266637 0.000000
0.400000 5.294956 0.000000
0.400000 5.323272 0.000000
0.400000 5.351590 0.000000
0.400000 5.379902 0.000000
0.400000 5.408180 0.000000
0.400000 5.436488 0.000000
0.400000 5.464798 0.000000
0.400000 5.493113 0.000000
0.400000 5.521444 0.000000
0.400000 5.549762 0.000000
0.400000 5.578081 0.000000
0.400000 5.606398 0.000000
0.400000 5.634712 0.000000
0.400000 5.663029 0.000000
0.400000 5.691341 0.000000
0.400000 5.718377 0.000000
