0.700000 0.028301 -0.000000
0.700000 0.056631 5.658732
0.700000 0.084942 10.764999
0.700000 0.113253 10.758877
0.700000 0.141565 13.897722
0.700000 0.169875 18.140080
0.700000 0.198186 21.528019
0.700000 0.226492 23.844451
0.700000 0.254804 24.718247
0.700000 0.283109 25.255223
0.700000 0.311483 25.872196
0.700000 0.339819 27.307376
0.700000 0.368135 28.784378
0.700000 0.396449 28.606635
0.700000 0.424769 27.919416
0.700000 0.453079 27.593578
0.700000 0.481401 27.225098
0.700000 0.509720 26.942641
0.700000 0.538041 26.148742
0.700000 0.566350 24.603628
0.700000 0.594669 23.372977
0.700000 0.622986 22.177731
0.700000 0.651304 20.668475
0.700000 0.679622 19.178427
0.700000 0.707940 17.778034
0.700000 0.736257 16.348041
0.700000 0.764577 14.758470
0.700000 0.792893 13.288781
0.700000 0.821222 11.509377
0.700000 0.849539 10.118658
