-0.900000 0.028351 -0.000000
-0.900000 0.056704 -7.985267
-0.900000 0.085024 -16.019535
-0.900000 0.113344 -16.128123
-0.900000 0.141665 -19.712862
-0.900000 0.169980 -26.925683
-0.900000 0.198306 -33.159054
-0.900000 0.226637 -36.227748
-0.900000 0.254965 -36.623680
-0.900000 0.283290 -37.759493
-0.900000 0.311603 -41.146604
-0.900000 0.339917 -44.144055
-0.900000 0.368235 -45.332053
-0.900000 0.396547 -45.105278
-0.900000 0.424866 -44.796443
-0.900000 0.453180 -45.490272
-0.900000 0.481498 -46.047404
-0.900000 0.509820 -44.640636
