-1.500000 0.028349 -0.000000
-1.500000 0.056704 -16.524918
-1.500000 0.085027 -32.125116
-1.500000 0.113341 -33.976619
-1.500000 0.141665 -44.362636
-1.500000 0.169975 -58.601582
-1.500000 0.198280 -68.406208
-1.500000 0.226608 -73.101588
-1.500000 0.254931 -77.696491
-1.500000 0.283249 -85.833566
-1.500000 0.311559 -92.548265
-1.500000 0.339873 -94.114283
-1.500000 0.368241 -94.126752
-1.500000 0.396549 -95.994962
-1.500000 0.424866 -98.215273
-1.500000 0.453180 -97.310583
-1.500000 0.481495 -94.641965
-1.500000 0.509807 -92.460132
-1.500000 0.538121 -90.246974
-1.500000 0.566442 -87.342468
-1.500000 0.594753 -83.790485
-1.500000 0.623072 -79.493058
-1.500000 0.651378 -74.850223
-1.500000 0.679699 -70.240030
