0.500000 0.036607 -0.000000
0.500000 0.073207 1.997943
0.500000 0.109792 4.119721
0.500000 0.146376 2.844427
0.500000 0.182962 2.544563
0.500000 0.219537 5.812845
0.500000 0.256125 8.510858
0.500000 0.292693 7.973235
0.500000 0.329283 6.919942
0.500000 0.365877 9.476811
0.500000 0.402453 13.653545
0.500000 0.439038 11.856147
0.500000 0.475624 9.786107
0.500000 0.512206 13.307661
0.500000 0.548803 14.589394
0.500000 0.585393 14.065045
0.500000 0.621968 13.223294
0.500000 0.658552 14.162328
0.500000 0.695136 15.383238
0.500000 0.731721 14.675771
0.500000 0.768307 14.283337
0.500000 0.804890 14.468235
0.500000 0.841468 15.446217
0.500000 0.878063 14.821257
0.500000 0.914648 14.550664
0.500000 0.951245 14.596364
0.500000 0.987836 14.871841
0.500000 1.024394 14.217757
0.500000 1.060979 14.096031
0.500000 1.097566 13.883395
0.500000 1.134152 13.652574
0.500000 1.170738 13.752712
0.500000 1.207322 12.968951
0.500000 1.243910 13.422112
0.500000 1.280505 12.228899
0.500000 1.317089 12.590926
0.500000 1.353672 12.254444
0.500000 1.390261 11.308009
0.500000 1.426852 12.344557
0.500000 1.463435 10.700337
0.500000 1.500021 10.578187
0.500000 1.536605 11.408346
0.500000 1.573194 9.632193
0.500000 1.609777 9.678495
0.500000 1.646360 10.901551
0.500000 1.682949 8.855999
0.500000 1.719536 8.063647
0.500000 1.756129 10.353675
0.500000 1.792717 8.770040
0.500000 1.829301 6.172937
0.500000 1.865884 8.449016
0.500000 1.902465 8.979772
0.500000 1.939055 6.603604
0.500000 1.975633 6.826864
0.500000 2.012226 8.402215
0.500000 2.048805 7.702455
0.500000 2.085403 6.633630
0.500000 2.121987 7.340461
0.500000 2.158569 7.541904
0.500000 2.195161 7.225959
0.500000 2.231735 6.980714
0.500000 2.268322 7.096497
0.500000 2.304903 6.811340
0.500000 2.341487 7.080692
0.500000 2.378069 6.550122
0.500000 2.414660 6.126669
0.500000 2.451249 6.579658
0.500000 2.487832 5.988421
0.500000 2.524414 5.758390
0.500000 2.561000 5.827335
0.500000 2.597589 5.988206
0.500000 2.634181 6.210628
0.500000 2.670769 5.757178
0.500000 2.707354 5.235017
0.500000 2.743949 5.103852
0.500000 2.780535 5.003865
0.500000 2.817122 5.604015
0.500000 2.853689 5.628384
0.500000 2.890273 3.860442
0.500000 2.926858 2.998190
0.500000 2.963442 2.967439
0.500000 3.000023 2.260281
0.500000 3.036593 2.883738
0.500000 3.073165 4.468181
0.500000 3.109750 4.490445
0.500000 3.146341 4.481428
0.500000 3.182927 4.750435
0.500000 3.219509 3.782351
0.500000 3.256101 3.451490
0.500000 3.292678 3.697762
0.500000 3.329265 3.605772
0.500000 3.365846 4.359034
0.500000 3.402422 4.951672
0.500000 3.439012 4.382234
0.500000 3.475599 3.466735
0.500000 3.512184 2.613691
0.500000 3.548777 1.276107
0.500000 3.585355 0.122974
0.500000 3.621927 0.000000
0.500000 3.658508 0.000000
0.500000 3.695096 0.000000
0.500000 3.731686 0.000000
0.500000 3.768265 0.000000
0.500000 3.804847 0.000000
0.500000 3.841434 0.000000
0.500000 3.878025 0.000000
0.500000 3.914605 0.000000
0.500000 3.951186 0.000000
0.500000 3.987767 0.000000
0.500000 4.024354 0.000000
0.500000 4.060937 0.000000
0.500000 4.097521 0.000000
0.500000 4.134108 0.000000
0.500000 4.170680 0.000000
0.500000 4.207271 0.000000
0.500000 4.243856 0.000000
0.500000 4.280448 0.000000
0.500000 4.317034 0.000000
0.500000 4.353635 0.000000
0.500000 4.390228 0.000000
0.500000 4.426810 0.000000
0.500000 4.463403 0.000000
0.500000 4.499985 0.000000
0.500000 4.536575 0.000000
0.500000 4.573157 0.000000
0.500000 4.609745 0.000000
0.500000 4.646335 0.000000
0.500000 4.682926 0.000000
0.500000 4.719508 0.000000
0.500000 4.756090 0.000000
0.500000 4.792677 0.000000
0.500000 4.829296 0.000000
0.500000 4.865879 0.000000
0.500000 4.902465 0.000000
0.500000 4.939056 0.000000
0.500000 4.975648 0.000000
0.500000 5.012250 0.000000
0.500000 5.048831 0.000000
0.500000 5.085419 0.000000
0.500000 5.122005 0.000000
0.500000 5.158568 0.000000
0.500000 5.195144 0.000000
0.500000 5.231722 0.000000
0.500000 5.268305 0.000000
0.500000 5.304882 0.000000
0.500000 5.341460 0.000000
0.500000 5.378050 0.000000
0.500000 5.414643 0.000000
0.500000 5.451231 0.000000
0.500000 5.487825 0.000000
0.500000 5.524408 0.000000
0.500000 5.561017 0.000000
0.500000 5.597599 0.000000
0.500000 5.634179 0.000000
0.500000 5.670758 0.000000
0.500000 5.707347 0.000000
0.500000 5.743936 0.000000
0.500000 5.780516 0.000000
0.500000 5.817095 0.000000
0.500000 5.853680 0.000000
0.500000 5.890271 0.000000
0.500000 5.926856 0.000000
0.500000 5.959918 0.000000
