1.100000 0.036566 -0.000000
1.100000 0.073162 5.641008
1.100000 0.109746 14.781745
1.100000 0.146329 18.989068
1.100000 0.182933 25.476764
1.100000 0.219522 36.136548
1.100000 0.256103 42.450817
1.100000 0.292697 46.260251
1.100000 0.329278 53.125995
1.100000 0.365869 59.423175
1.100000 0.402459 61.914154
1.100000 0.439042 65.787803
1.100000 0.475619 69.735923
1.100000 0.512213 70.732182
1.100000 0.548810 72.011666
1.100000 0.585390 73.424878
1.100000 0.621976 73.266706
1.100000 0.658561 72.454223
1.100000 0.695140 72.630489
1.100000 0.731727 71.621591
1.100000 0.768303 69.802049
1.100000 0.804900 68.747285
1.100000 0.841495 67.084500
1.100000 0.878094 64.992503
1.100000 0.914682 62.961925
1.100000 0.951287 60.712981
1.100000 0.987872 58.232514
1.100000 1.024454 55.883312
1.100000 1.061042 53.144339
1.100000 1.097630 50.410859
1.100000 1.134219 48.096474
1.100000 1.170798 45.903715
1.100000 1.207388 43.681551
1.100000 1.243976 41.531344
1.100000 1.280568 39.516477
1.100000 1.317152 37.342955
1.100000 1.353742 35.191851
1.100000 1.390323 33.417362
1.100000 1.426921 31.922712
1.100000 1.463518 30.616821
1.100000 1.500115 29.379935
1.100000 1.536691 28.173606
1.100000 1.573268 27.251079
1.100000 1.609848 26.319230
1.100000 1.646425 25.396519
1.100000 1.683017 24.685208
1.100000 1.719594 24.023932
1.100000 1.756188 22.954986
1.100000 1.792766 22.354931
1.100000 1.829359 22.585796
1.100000 1.865933 21.902575
1.100000 1.902522 21.227394
1.100000 1.939109 21.492718
1.100000 1.975690 20.949130
1.100000 2.012279 20.179823
1.100000 2.048859 20.426189
1.100000 2.085455 19.625018
1.100000 2.122046 19.245222
1.100000 2.158630 19.824893
1.100000 2.194992 18.843473
