1.150000 0.036603 0.000000
1.150000 0.073215 6.491201
1.150000 0.109798 16.923820
1.150000 0.146382 22.379463
1.150000 0.182965 30.574873
1.150000 0.219548 42.622128
1.150000 0.256133 49.570748
1.150000 0.292708 53.666963
1.150000 0.329301 61.508600
1.150000 0.365876 68.783014
1.150000 0.402465 71.238789
1.150000 0.439047 75.352982
1.150000 0.475626 79.091638
1.150000 0.512210 79.158770
1.150000 0.548794 80.560475
1.150000 0.585375 82.170444
1.150000 0.621965 81.479397
1.150000 0.658566 80.788353
1.150000 0.695156 80.542646
1.150000 0.731733 78.285577
1.150000 0.768298 76.282129
1.150000 0.804895 75.162259
1.150000 0.841495 72.805345
1.150000 0.878079 70.135371
1.150000 0.914663 67.560178
1.150000 0.951253 64.602955
1.150000 0.987845 61.121497
1.150000 1.024431 57.765610
1.150000 1.061013 54.798394
1.150000 1.097590 51.806546
1.150000 1.134182 49.086049
1.150000 1.170775 46.730887
1.150000 1.207368 44.232345
1.150000 1.243957 41.490697
1.150000 1.280552 38.853329
1.150000 1.317138 36.579438
1.150000 1.353746 34.267990
1.150000 1.390336 32.313757
1.150000 1.426911 30.736864
1.150000 1.463465 29.382766
1.150000 1.500054 28.385525
1.150000 1.536652 27.484466
1.150000 1.573223 26.499212
1.150000 1.609805 25.221192
1.150000 1.646399 23.406943
1.150000 1.682982 22.284103
1.150000 1.719560 22.227460
1.150000 1.756157 21.124292
1.150000 1.792743 20.737466
1.150000 1.829337 21.583743
1.150000 1.865919 20.447075
1.150000 1.902497 19.959725
1.150000 1.939092 20.332882
1.150000 1.975680 18.277623
1.150000 2.012268 18.210385
1.150000 2.048856 18.025898
1.150000 2.085448 17.179333
1.150000 2.122030 17.757276
1.150000 2.158623 17.057570
1.150000 2.195170 17.573846
1.150000 2.231754 16.292100
1.150000 2.268355 16.101697
1.150000 2.300525 15.635157
