1.400000 0.036599 -0.000000
1.400000 0.073201 6.946332
1.400000 0.109787 18.723431
1.400000 0.146378 24.690081
1.400000 0.182965 34.529250
1.400000 0.219556 49.448356
1.400000 0.256131 57.714092
1.400000 0.292716 63.891952
1.400000 0.329312 74.257589
1.400000 0.365898 82.128329
1.400000 0.402489 85.285218
1.400000 0.439077 89.833709
1.400000 0.475671 92.412711
1.400000 0.512263 91.100931
1.400000 0.548832 90.101528
1.400000 0.585402 89.144466
1.400000 0.621981 86.371871
1.400000 0.658570 83.304898
1.400000 0.695156 81.290522
1.400000 0.731736 78.924654
1.400000 0.768316 76.363455
1.400000 0.804931 74.052737
1.400000 0.841521 72.213039
1.400000 0.878099 70.381403
1.400000 0.914694 68.385961
1.400000 0.951297 66.771987
1.400000 0.987890 64.836902
1.400000 1.024474 63.277888
1.400000 1.061058 61.901975
1.400000 1.097647 60.391084
1.400000 1.134244 59.288882
1.400000 1.170825 58.057862
1.400000 1.207411 56.460015
1.400000 1.243995 54.842972
1.400000 1.280597 53.117312
1.400000 1.317194 51.301809
1.400000 1.353782 49.751379
1.400000 1.390364 48.508564
1.400000 1.426954 47.323558
1.400000 1.463549 46.569471
1.400000 1.500135 45.557174
1.400000 1.536721 44.256222
1.400000 1.572269 43.918780
