0.000000 0.100000
0.000000 0.200000
12.767447 0.300000
43.696882 0.400000
-41.067369 -0.400000
-9.674612 -0.300000
0.000000 -0.200000
0.000000 -0.100000
-41.067369 -0.400000
-41.067369 -0.400000
-9.674612 -0.300000
11.9911436 0.3
11.9911436 0.3
