0.466926 0.007696
0.503482 2.592766
0.540028 7.925939
0.576574 10.104554
0.613150 11.045977
0.649695 12.185106
0.686240 10.366481
0.722807 10.801343
0.759362 11.669530
0.795906 10.226655
0.832474 12.501314
0.869034 13.653102
0.905583 12.502799
0.942161 12.976521
0.978708 12.484383
1.015257 13.512987
1.051827 14.009116
1.088397 14.235553
1.124951 14.977003
1.161522 15.653514
1.198070 16.416576
1.234618 16.737382
1.271181 16.580269
1.307727 16.588481
1.344276 17.245517
1.380852 17.914971
1.417399 18.862023
1.453950 19.422521
1.490518 20.132404
1.527057 20.043305
1.563597 20.274240
1.600161 21.190548
1.636707 21.558258
1.673261 21.876615
1.709836 23.336900
1.746382 24.208920
1.782933 24.278418
1.819498 24.926101
1.856065 25.674506
1.892614 26.418699
1.929185 26.855618
1.965741 27.383941
2.002284 28.294761
2.038854 28.912340
2.075403 29.533213
2.111957 30.116736
2.148521 30.449037
2.185079 30.832020
2.221624 31.355632
2.258187 31.722730
2.294733 32.068627
2.331276 32.469757
2.367840 32.846454
2.404383 33.000381
2.440933 33.145147
2.477501 33.257043
2.514048 33.389282
2.550586 33.549052
2.587149 33.710935
2.623695 33.799681
2.660244 33.659897
2.696820 33.761532
2.733373 33.805831
2.769918 33.673851
2.806486 33.620880
2.843033 33.627699
2.879586 33.488313
2.916158 33.261485
2.952704 32.964616
2.989248 32.708007
3.025821 32.472813
3.062372 32.292642
3.098920 32.103734
3.135482 31.891199
3.172029 31.722313
3.208573 31.329903
3.245138 30.691350
3.281695 30.293513
3.318243 29.977428
3.354813 29.764353
3.391370 29.652965
3.427922 29.475693
3.464485 29.203969
3.501038 28.841952
3.537578 28.550920
3.574143 27.946181
3.610689 27.535993
3.647237 27.126914
3.683790 26.908781
3.720338 26.885695
3.756887 26.787160
3.793450 26.581681
3.829996 25.944072
3.866548 25.570982
3.903111 25.188054
3.939658 25.043587
3.976205 24.964447
4.012782 24.215913
4.049331 24.061285
4.085871 24.373477
4.122438 24.275220
4.159043 23.892514
4.195593 23.128622
4.232157 23.187933
4.268697 23.321961
4.305244 22.219299
4.341814 22.363699
4.378371 23.099396
4.414920 22.467287
4.451523 22.076331
4.488070 22.269365
4.524618 22.008992
4.561184 21.241703
4.597741 21.131378
4.634290 21.490170
4.670856 20.987559
4.707414 21.015736
4.743969 21.349642
4.780542 20.760764
4.817095 20.784467
4.853642 20.960953
4.890207 20.372924
4.926759 20.563933
4.963308 20.637494
4.999877 20.194153
5.036428 20.716869
5.072973 20.338803
5.109538 20.211658
5.146082 20.850632
5.182626 19.717669
5.219194 19.941565
5.255740 20.702899
5.292290 19.253817
5.328860 20.100908
5.365407 20.301709
