1.124855 0.007697
1.161421 0.207677
1.197976 4.408527
1.234518 16.538547
1.271138 32.283145
1.307685 46.064231
1.344241 59.116924
1.380814 72.671409
1.417381 84.313921
1.453922 92.230156
1.490489 95.968157
1.527035 94.275964
1.563583 90.430442
1.600147 89.046813
1.636698 87.450229
1.673255 83.927077
1.709825 80.697913
1.746371 77.947695
1.782915 75.012650
1.819478 72.002679
1.856023 69.300431
1.892577 67.008404
1.929155 64.732547
1.965708 62.833124
2.002256 61.096827
2.038825 59.606608
2.075372 58.237589
2.111917 56.563928
2.148482 55.165377
2.185024 53.843739
2.221570 52.665141
2.258143 51.504343
2.294699 49.973842
2.331245 48.530523
2.367809 47.094518
2.404355 45.686191
2.440904 44.287347
2.477470 42.675161
2.514026 41.678563
2.550574 40.711623
2.587145 39.349568
2.623702 38.267537
2.660255 37.099802
2.696823 36.063527
2.733381 35.230276
2.769924 34.303420
2.806489 33.453924
2.843036 32.644123
2.879583 31.867378
2.916148 31.105607
2.952694 30.421095
2.989245 29.742167
3.025810 28.949832
3.062352 28.568542
3.098902 28.189576
3.135465 27.804558
3.172007 27.392026
3.208556 26.681635
3.245132 25.884727
3.281675 25.271249
3.318217 25.490910
3.354782 25.567898
3.391338 25.070531
3.427888 24.767930
3.464453 24.603325
3.500994 24.960439
3.537551 22.708972
