0.503520 2.245804
0.540072 6.685543
0.576610 9.089019
0.613172 10.618593
0.649717 11.595072
0.686263 9.712216
0.722818 10.203083
0.759365 12.388520
0.795907 11.851914
0.832475 14.978618
0.869025 22.056746
0.905572 30.581143
0.942131 42.271549
0.978677 53.769507
1.015220 60.899141
1.051787 64.658719
1.088351 67.063625
1.124897 65.558910
1.161456 62.132663
1.198008 61.758161
1.234550 62.010665
1.271118 60.343392
1.307666 59.068847
1.344205 59.361648
1.380774 58.490877
1.417328 56.639880
1.453879 55.815316
1.490441 54.678306
1.526978 53.765089
1.563514 52.898993
1.600084 51.921379
1.636633 51.011695
1.673189 49.744324
1.709754 48.679560
1.746298 47.587178
1.782847 46.528088
1.819411 45.969090
1.855971 45.385217
1.892517 44.295940
1.929086 43.452068
1.965633 42.643463
2.002189 41.512552
2.038754 40.325290
2.075301 39.422289
2.111850 38.753792
2.148432 37.866269
2.184980 37.282046
2.221515 36.567057
2.258083 35.480112
2.294638 34.416204
2.331188 33.524462
2.367761 32.516480
2.404316 31.598634
2.440862 30.963912
2.477427 30.390424
2.513982 29.978961
2.550527 29.479314
2.587091 28.806335
2.623637 27.867069
2.660181 27.051438
2.696750 26.227549
2.733297 25.764680
2.769848 25.755666
2.806414 25.495112
2.842963 25.234149
2.879509 24.787027
2.916083 24.555485
2.952643 24.466171
2.989191 23.751593
3.025753 22.881645
3.062303 22.719443
3.098854 23.299993
3.135417 23.026575
3.171974 22.386090
3.208529 23.065636
3.245095 23.162856
3.281647 21.724989
3.318197 21.706832
3.354758 22.250418
3.391306 20.927475
3.427843 21.065580
3.464401 22.047526
3.500960 21.186918
3.537514 21.342009
3.574086 21.984313
3.610645 20.944305
3.647192 20.551541
3.683758 21.064913
3.720303 19.664923
3.756854 19.322994
3.793421 19.578909
