0.400000 0.028379 0.000000
0.400000 0.056739 11.166730
0.400000 0.085092 16.248281
0.400000 0.113414 19.761578
0.400000 0.141739 22.658787
0.400000 0.170044 26.192298
0.400000 0.198363 28.503486
0.400000 0.226680 29.955507
0.400000 0.254994 31.965040
0.400000 0.283314 32.991148
0.400000 0.311635 34.777577
0.400000 0.339951 35.479302
0.400000 0.368271 36.864281
0.400000 0.396589 37.760942
0.400000 0.424909 38.492983
0.400000 0.453232 39.601267
0.400000 0.481555 39.938554
0.400000 0.509874 40.560361
0.400000 0.538194 40.638103
0.400000 0.566508 42.176726
0.400000 0.594827 42.129188
0.400000 0.623148 42.861228
0.400000 0.651459 42.618097
0.400000 0.679774 43.208332
0.400000 0.708091 42.966323
0.400000 0.736410 43.202148
0.400000 0.764742 43.221860
0.400000 0.793064 43.157698
0.400000 0.821384 43.736609
0.400000 0.849702 43.680332
0.400000 0.878023 43.099567
0.400000 0.906342 43.082607
0.400000 0.934662 43.081518
0.400000 0.962980 43.302557
0.400000 0.991300 43.220555
0.400000 1.019619 43.082607
0.400000 1.047938 43.877492
0.400000 1.076252 43.467687
0.400000 1.104558 43.281414
0.400000 1.132880 43.654220
0.400000 1.161213 43.677029
0.400000 1.189534 43.218736
0.400000 1.217848 43.825651
0.400000 1.246167 43.579179
0.400000 1.274484 43.244786
0.400000 1.302807 43.156245
0.400000 1.331144 43.313475
0.400000 1.359458 43.308755
0.400000 1.387774 43.166783
0.400000 1.416107 43.696882
