-0.800000 0.028346 -0.000000
-0.800000 0.056705 -6.714148
-0.800000 0.085027 -13.258309
-0.800000 0.113348 -13.992243
-0.800000 0.141663 -16.963768
-0.800000 0.169974 -22.390523
-0.800000 0.198292 -27.911678
-0.800000 0.226606 -30.850629
-0.800000 0.254930 -31.194877
-0.800000 0.283246 -31.382397
-0.800000 0.311570 -33.308902
-0.800000 0.339888 -35.860157
-0.800000 0.368212 -37.160957
-0.800000 0.396535 -36.850000
-0.800000 0.424849 -36.031969
-0.800000 0.453167 -35.627988
-0.800000 0.481486 -36.339907
-0.800000 0.509803 -36.171660
-0.800000 0.538122 -34.106058
-0.800000 0.566439 -32.060025
-0.800000 0.594788 -30.951168
