-1.750000 0.028353 -0.000000
-1.750000 0.056716 -18.374503
-1.750000 0.085040 -36.327381
-1.750000 0.113364 -42.370189
-1.750000 0.141687 -57.285688
-1.750000 0.169997 -71.792558
-1.750000 0.198317 -80.942707
-1.750000 0.226632 -85.832400
-1.750000 0.254958 -89.497296
-1.750000 0.283273 -93.222521
-1.750000 0.311580 -96.223670
-1.750000 0.339897 -97.441728
-1.750000 0.368215 -96.807507
-1.750000 0.396530 -96.055894
-1.750000 0.424811 -95.034694
-1.750000 0.453126 -93.107718
-1.750000 0.481441 -91.352952
-1.750000 0.509755 -89.904256
-1.750000 0.538069 -87.760192
