-1.100000 0.028354 -0.000000
-1.100000 0.056704 -10.367100
-1.100000 0.085021 -20.229772
-1.100000 0.113345 -21.291744
-1.100000 0.141661 -27.460178
-1.100000 0.169973 -36.425513
-1.100000 0.198285 -43.461047
-1.100000 0.226611 -46.370051
-1.100000 0.254929 -48.093340
-1.100000 0.283234 -52.095102
-1.100000 0.311554 -56.552292
-1.100000 0.339871 -59.083440
-1.100000 0.368194 -59.120206
-1.100000 0.396516 -59.184444
-1.100000 0.424836 -60.736656
-1.100000 0.453153 -61.476925
-1.100000 0.481468 -60.280501
-1.100000 0.509786 -57.538275
-1.100000 0.538104 -55.191361
-1.100000 0.566421 -54.338131
