-1.000000 0.028357 -0.000000
-1.000000 0.056715 -9.213668
-1.000000 0.085027 -17.627727
-1.000000 0.113349 -18.235265
-1.000000 0.141675 -23.582829
-1.000000 0.169980 -30.901878
-1.000000 0.198296 -35.853303
-1.000000 0.226622 -37.955489
-1.000000 0.254944 -38.934507
-1.000000 0.283252 -42.116020
-1.000000 0.311576 -46.831336
-1.000000 0.339894 -48.690785
-1.000000 0.368218 -48.204025
-1.000000 0.396536 -48.511913
-1.000000 0.424855 -50.154830
-1.000000 0.453173 -51.008971
-1.000000 0.481491 -49.897678
-1.000000 0.509808 -47.703519
-1.000000 0.538111 -45.758691
-1.000000 0.566429 -45.221588
-1.000000 0.594738 -44.004784
