0.028310 0.000000
0.064890 -0.238347
0.101446 -1.269298
0.137991 -2.008341
0.174559 -3.000164
0.211119 -3.353632
0.247669 -3.493130
0.284240 -5.323072
0.320797 -3.783970
0.357348 -0.615476
0.393909 0.046158
0.430465 5.831795
0.467011 14.120162
0.503573 22.019327
0.540120 30.153333
0.576668 36.022350
0.613234 39.775069
0.649785 39.611949
0.686332 39.375978
0.722903 37.942611
0.759459 35.229619
0.796011 32.661328
0.832582 30.400919
0.869136 28.061103
0.905691 25.520989
0.942269 23.797734
0.978836 20.986324
1.015393 15.976647
1.051957 6.277837
1.088520 -0.046152
1.125078 -3.792756
1.161644 -6.438653
1.198209 -3.322777
1.234762 -1.007733
1.271340 -1.076692
1.307899 -0.992015
1.344454 -0.330810
1.381016 -0.892331
1.417563 -1.230955
1.454116 -1.369658
1.490690 -2.538202
1.527248 -4.407536
1.563798 -5.739806
1.600361 -5.270196
1.636918 -4.500296
1.673482 -3.284889
1.710052 -1.984387
1.746614 -1.999838
1.783167 -4.039234
1.819730 -7.469931
1.856288 -8.708124
1.892839 -7.632356
1.929408 -6.539028
1.965972 -6.437776
2.002526 -7.231519
2.039100 -8.368687
2.075659 -10.183726
2.112215 -11.993987
2.148779 -11.570119
2.185332 -12.786360
2.221887 -14.780366
2.258455 -12.423764
2.295006 -10.901010
2.331551 -9.834530
2.368117 -6.047943
2.404667 -3.954357
2.441220 -6.040202
2.477793 -7.746100
2.514358 -8.237074
2.550908 -9.716874
2.587481 -11.069301
2.624042 -9.844632
2.660597 -8.016384
2.697160 -10.000701
2.733713 -8.816011
2.770267 -4.893520
2.806840 -4.399807
2.843398 -3.945688
2.879956 -2.977285
2.916527 -5.753008
2.953086 -9.807192
2.989641 -9.216654
3.026209 -8.546217
3.062766 -9.561556
3.099320 -7.824492
3.135884 -5.369829
3.172443 -4.777055
3.208998 -5.146930
3.245562 -5.692748
3.282121 -7.554155
3.318674 -8.686109
3.355248 -8.115173
3.391807 -8.706872
3.428361 -8.524418
3.464918 -7.270627
3.501471 -6.886036
3.538026 -6.970848
3.574592 -6.500424
3.611149 -6.684884
3.647702 -7.009094
3.684325 -6.948664
3.720876 -7.749109
3.757430 -8.548489
3.793994 -8.293180
3.830564 -8.175852
3.867118 -7.999968
3.903691 -6.730762
3.940243 -6.292345
3.976797 -6.240079
4.013369 -6.376752
4.049936 -7.644750
4.086494 -8.692305
4.123068 -8.506940
4.159621 -8.561406
4.196174 -7.978981
4.232740 -6.931352
4.269291 -6.800725
4.305848 -6.940057
4.342418 -7.030588
4.378974 -7.553850
4.415526 -7.940292
4.452127 -7.965990
4.488664 -8.075339
4.525208 -7.681560
4.561772 -7.670953
4.598337 -8.184163
4.634891 -7.815926
4.671460 -7.100202
4.708018 -7.245978
4.744573 -7.439680
4.781135 -7.262341
4.817687 -7.385769
4.854236 -7.964152
4.890809 -8.161892
4.927368 -8.006902
4.963923 -7.693429
5.000479 -7.570667
5.037039 -7.677881
5.073593 -7.601141
5.110160 -7.208132
5.146725 -7.283919
5.183276 -7.693242
5.219845 -7.885115
5.256405 -7.814926
5.292964 -7.816006
5.329537 -8.129970
5.366107 -8.282573
5.402660 -7.576937
5.439238 -6.937844
5.475797 -7.275763
5.512352 -7.485722
5.548914 -7.339274
5.585466 -7.662763
5.622019 -8.179169
5.658639 -8.394287
5.695199 -7.985767
5.731753 -7.208765
5.768323 -7.407715
5.804882 -7.953440
5.841436 -7.685845
5.878078 -7.423309
5.914655 -7.974672
5.951209 -8.607083
5.987789 -8.222300
6.024349 -7.367645
6.060904 -7.647215
6.097463 -8.655123
6.134030 -8.253848
6.170584 -7.284994
6.207154 -7.623101
6.243707 -8.423400
6.280262 -7.871059
6.316835 -7.015063
6.353386 -7.692581
6.389938 -8.541026
6.426506 -8.123794
6.463056 -7.531516
6.499608 -7.971724
6.536174 -8.731517
6.572733 -8.161423
6.609288 -7.077963
6.645852 -7.531325
6.682420 -8.576061
6.718975 -8.238527
6.755547 -7.430571
6.792106 -8.007113
6.828659 -9.040103
6.865227 -8.316080
6.901793 -7.122178
6.938346 -7.769981
6.974929 -8.944590
7.011489 -8.220645
7.048043 -7.270330
7.084612 -8.130881
7.121171 -9.315084
7.157725 -8.255075
7.194294 -7.192365
7.230850 -8.438547
7.267439 -9.697053
7.304005 -8.295952
7.340564 -7.253925
7.377123 -8.977781
7.413688 -9.592447
7.450256 -7.729988
7.486809 -7.385296
7.523386 -9.829742
7.559944 -9.636835
7.596503 -7.446977
7.633065 -7.877285
7.669629 -10.345999
7.706182 -8.892904
7.742762 -6.929808
7.779320 -8.821902
7.815875 -10.509429
7.852447 -8.200414
7.889006 -7.053518
7.925582 -9.936756
7.962161 -9.872931
7.998723 -7.282765
8.035276 -7.870498
8.071841 -10.954634
8.108400 -9.284487
8.144955 -6.962625
8.181520 -9.461916
8.218090 -10.813941
8.254644 -7.976519
8.291219 -7.437499
8.327778 -11.222124
8.364333 -10.116751
8.400895 -7.100767
8.437446 -9.417271
8.473994 -11.365536
8.510561 -8.424878
8.547119 -7.454053
8.583673 -11.540631
8.620239 -10.447423
8.656798 -7.023095
8.693352 -10.024906
8.729919 -11.539311
8.766485 -8.229838
8.803039 -8.285523
8.839608 -11.776930
8.876168 -9.937474
8.912721 -7.408983
8.949287 -11.254225
8.985854 -11.529536
9.022413 -8.230585
9.058980 -11.030240
9.095541 -12.599333
9.132096 -9.978093
9.168665 -11.392018
9.205232 -12.967233
9.241787 -12.331273
9.278356 -12.477081
9.314914 -13.145865
9.351468 -13.587009
9.388034 -12.724076
9.424592 -13.500302
9.461152 -13.378235
9.497719 -12.991859
9.534285 -13.521579
9.570834 -12.932532
9.607415 -14.190796
9.643975 -13.404174
9.680580 -13.990797
9.717146 -14.082162
9.753698 -13.417004
9.790253 -14.588219
9.826833 -13.306070
9.863393 -14.682181
9.899948 -13.947892
9.936515 -14.438502
9.973075 -14.753144
10.009631 -14.540379
10.046216 -15.451166
10.082780 -15.072396
10.119328 -15.887285
10.155900 -16.054639
10.192461 -16.298120
10.229018 -16.963224
10.265581 -16.832046
10.302157 -17.557798
10.338707 -17.768284
10.375279 -18.084676
10.411832 -18.976596
10.448388 -18.704056
10.484943 -20.065352
10.521493 -19.582182
10.558043 -20.260732
10.594618 -20.969510
10.631179 -20.496999
10.667739 -21.285748
10.704313 -21.889590
10.740874 -21.766224
10.777431 -22.017437
10.813997 -22.892877
10.850562 -23.005832
10.887117 -22.986166
10.923691 -23.598617
10.960251 -23.943202
10.996808 -23.971830
11.033376 -24.084545
11.069943 -24.542738
11.106498 -25.024090
11.143067 -25.008057
11.179628 -25.036781
11.216184 -25.333526
11.252761 -25.612532
11.289334 -25.775814
11.325892 -25.859373
11.362469 -25.996349
11.399033 -26.140471
11.435592 -26.585355
11.472175 -27.109002
11.508738 -27.515281
11.545295 -27.978783
11.581870 -28.404876
11.618438 -28.792900
11.655004 -29.303999
11.691578 -29.970758
11.728140 -30.549334
11.764695 -31.149559
11.801264 -31.877286
11.837833 -32.455743
11.874387 -33.123961
11.910964 -33.973959
11.947526 -35.047279
11.984089 -36.153869
12.005699 -36.606838
