0.028307 0.000000
0.064986 0.000000
0.101539 0.000000
0.138141 0.000000
0.174713 0.000000
0.211259 0.000000
0.247806 0.000000
0.284368 0.000000
0.320931 0.000000
0.357481 0.000000
0.394058 0.000000
0.430612 0.000000
0.467168 0.000000
0.503734 0.000000
0.540284 0.000000
0.576834 0.000000
0.613403 0.000000
0.649960 0.000000
0.686512 0.000000
0.723083 0.000000
0.759638 0.000000
0.796191 0.000000
0.832768 0.000000
0.869331 0.000000
0.905886 0.000000
0.942455 0.000000
0.979013 0.000000
1.015569 0.000000
1.052137 0.000000
1.088708 0.000000
1.125258 0.000000
1.161828 0.000000
1.198390 0.000000
1.234944 0.000000
1.271511 0.000000
1.308062 0.000000
1.344615 0.000000
1.381176 0.000000
1.417737 0.000000
1.454285 0.000000
1.490859 0.000000
1.527411 0.000000
1.563964 0.000000
1.600533 0.000000
1.637097 0.000000
1.673659 0.000000
1.710239 0.000000
1.746798 0.000000
1.783352 0.000000
1.819921 0.000000
1.856477 0.000000
1.893031 0.000000
1.929596 -0.023075
1.966156 -5.038791
2.002710 -16.033695
2.039286 -22.928946
2.075846 -23.288640
2.112402 -24.687720
2.148958 -30.197647
2.185506 -36.387681
2.222064 -39.656307
2.258627 -41.994421
2.295177 -45.930997
2.331727 -49.185947
2.368378 -51.245280
2.404944 -51.426607
2.441500 -48.986355
2.478080 -45.455256
2.514639 -39.983630
2.551194 -28.765472
2.587772 -12.462854
2.624321 -1.929947
2.660875 0.007695
2.697447 1.415017
2.734005 7.131114
2.770560 14.971821
2.807131 17.107733
2.843689 18.530263
2.880243 21.149883
2.916816 19.576716
2.953382 17.942691
2.989938 15.769599
3.026507 15.476651
3.063059 15.223500
3.099613 14.319056
3.136187 14.368836
3.172743 14.453067
3.209292 14.711661
3.245870 13.561359
3.282427 13.790567
3.318979 12.656452
3.355552 12.830220
3.392106 13.137663
3.428660 12.195142
3.465237 13.775532
3.501804 13.373269
3.538359 13.923931
3.574931 14.038458
3.611491 13.614274
3.648046 14.032596
3.684612 13.354523
3.721178 14.060174
3.757732 14.023957
3.794317 14.765852
3.830876 15.041880
3.867433 15.355741
3.904007 15.598936
3.940560 15.784579
3.977114 15.980861
4.013694 15.851508
4.050254 15.796492
4.086813 15.993635
4.123385 16.260336
4.159940 16.461329
4.196496 17.026317
4.233073 17.151761
4.269631 17.443675
4.306185 17.072251
4.342756 17.430648
4.379315 17.260286
4.415871 17.425503
4.452440 17.407772
4.489006 17.951395
4.525561 18.239342
4.562150 17.887378
4.598709 18.548023
4.635264 18.348906
4.671844 18.558787
4.708397 18.236156
4.744952 18.542736
4.781525 19.022439
4.818085 18.559524
4.854641 19.286988
4.891210 19.223141
4.927775 19.397659
4.964325 19.948850
5.000897 19.570050
5.037470 19.963772
5.074027 19.844607
5.110602 19.844073
5.147161 20.643646
5.183713 20.226861
5.220284 20.315757
5.256860 21.009028
5.293418 20.697367
5.329992 20.951681
5.366547 21.591139
5.403102 21.358251
5.439681 21.750876
5.476234 22.497844
5.512788 22.497828
5.549374 22.749048
5.585933 23.370647
5.622487 23.711502
5.659058 23.553911
5.695617 23.652293
5.732173 24.249426
5.768743 24.453483
5.805309 24.388590
5.841864 24.601411
5.878427 24.833131
5.914987 25.131373
5.951542 25.388112
5.988108 25.078380
6.024672 24.990540
6.061225 25.333533
6.097809 25.534200
6.134369 25.501022
6.170955 25.392732
6.207528 25.457391
6.244099 25.470298
6.280655 25.691628
6.317228 25.675502
6.353789 25.450722
6.390344 25.210812
6.426908 25.209647
6.463469 25.515321
6.500023 25.488122
6.536603 25.358450
6.573170 25.169293
6.609726 25.200696
6.646297 25.422331
6.682850 25.400322
6.719404 25.067691
6.755977 24.768544
6.792529 24.784663
6.829084 25.121537
6.865659 24.982945
6.902209 24.338309
6.938765 24.475521
6.975336 24.768546
7.011899 24.612349
7.048466 24.298370
7.085042 23.932561
7.121605 24.041584
7.158159 24.318028
7.194763 24.089306
7.231322 23.495274
7.267872 23.559056
7.304441 24.163461
7.341394 23.941664
7.377951 23.222538
7.414528 23.466206
7.451089 23.780330
7.487645 23.171712
7.524209 22.724578
7.560784 23.210863
7.597339 23.613758
7.633911 23.084055
7.670473 22.674134
7.707032 23.285871
7.743604 23.459642
7.780165 22.582061
7.816721 22.802517
7.853294 23.375670
7.889853 22.866935
7.926407 22.426747
7.962978 22.776850
7.999552 23.255108
8.036107 22.752373
8.072677 22.461494
8.109241 23.197178
8.145794 23.202449
8.182371 22.214065
8.218933 22.442016
8.255492 23.116604
8.292058 22.292319
8.328611 22.140383
8.365165 23.113355
8.401750 23.049558
8.438310 22.432287
8.474866 22.656689
8.511445 22.889157
8.548010 21.509546
8.584566 20.070336
8.621140 19.813995
8.657699 17.374515
8.694254 15.779342
8.730826 13.238851
8.767386 10.529847
8.803941 10.839898
8.840507 6.816304
8.877064 2.146094
8.913619 0.600090
8.950199 -0.007689
8.986758 -0.984702
9.023307 -4.455209
9.059873 -10.362188
9.096425 -17.671641
9.132979 -23.752240
9.169558 -27.081236
9.206117 -29.410459
9.242668 -31.852857
9.279243 -33.576251
9.315803 -34.049102
9.352361 -35.895783
9.388931 -37.783034
9.425497 -38.401868
9.462056 -39.830884
9.498633 -41.278312
9.535186 -41.612351
9.571742 -41.285842
9.608313 -41.344944
9.644889 -40.741705
9.681446 -39.426283
9.718018 -38.220991
9.754577 -36.058352
9.791133 -32.827531
9.827712 -29.327250
9.864272 -26.579273
9.900823 -24.504596
9.937393 -21.893853
9.973963 -19.611307
10.010518 -18.961522
10.047084 -17.016648
10.083644 -16.484535
10.120199 -16.063562
10.156788 -15.733604
10.193351 -15.770504
10.229907 -15.678311
10.266485 -15.506292
10.303046 -15.043557
10.339670 -14.919691
10.376238 -14.441300
10.412806 -14.728525
10.449361 -14.631203
10.485934 -15.307011
10.522494 -15.552145
10.559049 -15.871435
10.595629 -16.313099
10.632183 -16.374809
10.668749 -16.839533
10.705321 -16.527897
10.741895 -16.887391
10.778452 -16.552140
10.815023 -16.745113
10.851583 -16.629087
10.888140 -17.001939
10.924707 -17.354349
10.961283 -17.518490
10.997838 -18.174985
11.034420 -17.750537
11.070980 -18.749456
11.107541 -17.885573
11.144111 -18.821341
11.180665 -18.984527
11.217223 -19.372551
11.253834 -20.634271
11.290438 -20.290433
11.326994 -21.290199
11.363632 -21.794890
11.400196 -21.492478
11.436753 -22.301281
11.473325 -23.129545
11.509891 -23.042048
11.546455 -23.359963
11.583027 -24.188630
11.619586 -24.959468
11.656142 -25.211086
11.692715 -25.406282
11.729292 -26.137191
11.765847 -26.866651
11.802425 -27.519872
11.838984 -28.118433
11.875542 -28.464628
11.912103 -29.071610
11.948669 -29.637596
11.985223 -30.325146
12.021798 -31.098200
12.058358 -31.834204
12.094913 -32.650573
12.131492 -33.541874
12.168038 -34.238595
12.204590 -34.958906
12.241167 -35.890076
12.277720 -36.720716
12.314275 -37.777985
12.350847 -39.037211
12.387406 -39.966066
12.423962 -40.874881
12.460524 -42.226897
12.497084 -43.778694
12.533641 -45.220459
12.570228 -46.964272
12.606790 -48.614837
12.643347 -50.011702
12.679918 -51.689990
12.716472 -53.607980
12.753027 -55.404441
12.789609 -57.197839
12.826168 -59.256455
12.862724 -60.923603
12.899300 -62.939883
12.935862 -64.865446
12.972418 -66.013819
13.008989 -66.890555
13.045555 -65.304666
13.082113 -61.762011
13.118686 -55.834633
13.155244 -30.208558
13.191795 -3.977335
13.228364 0.453985
13.264932 7.560410
13.301486 19.793984
13.338071 20.505436
13.374633 16.325769
13.411190 19.117110
13.447761 20.722482
13.484315 16.445488
13.520870 11.925718
13.557450 13.320184
13.594010 14.011870
13.630565 10.355186
13.667143 10.613721
13.703703 10.036142
13.740260 9.216440
13.776831 12.191486
13.813396 10.905791
13.849951 9.062284
13.886525 11.921966
13.923088 10.805479
13.959644 8.500730
13.996211 10.430849
14.032781 10.159953
14.069337 8.292157
14.088067 9.391778
